…
> Search 423,322,590 documents from 11,815 content providers

Scraped content providers from site with a script (partially LLM generated,
chat/2a850e56-c9e3-4242-a56b-aaaa1439edd2).

```
$ ./extract.py > providers.jsonl
```


## Digging

```
D select * from 'base-providers-2025-06-01.json';
┌──────────────────────┬──────────────────────┬───────────────────┬──────────────────────┬────────────────┬──────────────────────┬───┬──────────────────┬───────────────┬──────────────────────┬──────────────────────┬──────────────────────┐
│         name         │         url          │     continent     │       country        │ document_count │   open_access_info   │ … │      system      │ in_base_since │       base_url       │     coordinates      │         ror          │
│       varchar        │       varchar        │      varchar      │       varchar        │    varchar     │       varchar        │   │     varchar      │    varchar    │       varchar        │       varchar        │       varchar        │
├──────────────────────┼──────────────────────┼───────────────────┼──────────────────────┼────────────────┼──────────────────────┼───┼──────────────────┼───────────────┼──────────────────────┼──────────────────────┼──────────────────────┤
│ Cambridge Internat…  │ https://www.cambri…  │ Europe            │ United Kingdom       │ 40             │ 40 (100%)            │ … │ OJS              │ 2025-05-28    │ https://www.base-s…  │ NULL                 │ NULL                 │
│ CTU Journal of Sci…  │ https://ctujsvn.ct…  │ Asia              │ Vietnam              │ 4864           │ 4864 (100%)          │ … │ OJS              │ 2025-05-28    │ https://www.base-s…  │ NULL                 │ NULL                 │
│ CV EDUJAVARE PUBLI…  │ https://edujavare.…  │ Asia              │ Indonesia            │ 631            │ 194 (31%)            │ … │ OJS              │ 2025-05-28    │ https://www.base-s…  │ NULL                 │ NULL                 │
│ E-Journal Naifaderu  │ https://e-journal.…  │ Asia              │ Indonesia            │ 30             │ unknown Type: E-Jo…  │ … │ OJS              │ 2025-05-28    │ https://www.base-s…  │ NULL                 │ NULL                 │
│ Prisma Journal       │ https://www.prisma…  │ South America     │ Ecuador              │ 7              │ 7 (100%)             │ … │ OJS              │ 2025-05-28    │ https://www.base-s…  │ NULL                 │ NULL                 │
│ DAARUS TSAQOFAH, J…  │ https://jurnalpasc…  │ Asia              │ Indonesia            │ 30             │ 30 (100%)            │ … │ OJS              │ 2025-05-26    │ https://www.base-s…  │ NULL                 │ NULL                 │
│ Diffusion Fundamen…  │ https://diffusion.…  │ Europe            │ Germany              │ 1214           │ 460 (38%)            │ … │ OJS              │ 2025-05-26    │ https://www.base-s…  │ NULL                 │ NULL                 │
│ Namenkundliche Inf…  │ https://www.namenk…  │ Europe            │ Germany              │ 718            │ 718 (100%)           │ … │ OJS              │ 2025-05-26    │ https://www.base-s…  │ NULL                 │ NULL                 │
│ Tech Science Press   │ https://www.techsc…  │ North America     │ United States of A…  │ 4999           │ 4999 (100%)          │ … │ Unbekannt        │ 2025-05-26    │ https://www.base-s…  │ NULL                 │ NULL                 │
│ Curtin University:…  │ https://espace.cur…  │ Australia/Oceania │ Australia            │ 75818          │ 4833 (7%)            │ … │ DSpace XOAI      │ 2025-05-21    │ https://www.base-s…  │ -32.006120 / 115.9…  │ NULL                 │
│ chronotopos – A Jo…  │ https://www.chrono…  │ Europe            │ Germany              │ 100            │ 100 (100%)           │ … │ OJS              │ 2025-05-20    │ https://www.base-s…  │ NULL                 │ NULL                 │
│ Innova Science Jou…  │ https://innovascie…  │ South America     │ Ecuador              │ 51             │ 51 (100%)            │ … │ OJS              │ 2025-05-20    │ https://www.base-s…  │ NULL                 │ NULL                 │
│ JURNAL TEOLOGI RAI   │ https://jurnal.stt…  │ Asia              │ Indonesia            │ 31             │ 31 (100%)            │ … │ OJS              │ 2025-05-20    │ https://www.base-s…  │ NULL                 │ NULL                 │
│ Manisa Celal Bayar…  │ https://akademikar…  │ Europe            │ Turkey               │ 26856          │ unknown Type: Hoch…  │ … │ DSpace XOAI      │ 2025-05-20    │ https://www.base-s…  │ NULL                 │ NULL                 │
│ Odessa National Me…  │ https://repo.odmu.…  │ Europe            │ Ukraine              │ 15778          │ unknown Type: Hoch…  │ … │ DSpace XOAI      │ 2025-05-20    │ https://www.base-s…  │ NULL                 │ NULL                 │
│ Revista da Extensã…  │ https://seer.ufrgs…  │ South America     │ Brazil               │ 355            │ 355 (100%)           │ … │ OJS              │ 2025-05-20    │ https://www.base-s…  │ NULL                 │ https://ror.org/01…  │
│ SCOPUA Books         │ https://books.scop…  │ Asia              │ Pakistan             │ 1              │ unknown Type: E-Bo…  │ … │ OJS              │ 2025-05-20    │ https://www.base-s…  │ NULL                 │ NULL                 │
│ Wah Academia Journ…  │ https://wajhn.com/   │ Asia              │ Pakistan             │ 6              │ 6 (100%)             │ … │ OJS              │ 2025-05-20    │ https://www.base-s…  │ NULL                 │ NULL                 │
│ PPCU Repository of…  │ https://disszertac…  │ Europe            │ Hungary              │ 581            │ unknown Type: Publ…  │ … │ Eprints 3        │ 2025-05-19    │ https://www.base-s…  │ NULL                 │ NULL                 │
│ PPCU Repository of…  │ https://publikacio…  │ Europe            │ Hungary              │ 2529           │ unknown Type: Publ…  │ … │ Eprints 3        │ 2025-05-19    │ https://www.base-s…  │ NULL                 │ NULL                 │
│          ·           │          ·           │   ·               │    ·                 │  ·             │      ·               │ · │   ·              │     ·         │          ·           │  ·                   │  ·                   │
│          ·           │          ·           │   ·               │    ·                 │  ·             │      ·               │ · │   ·              │     ·         │          ·           │  ·                   │  ·                   │
│          ·           │          ·           │   ·               │    ·                 │  ·             │      ·               │ · │   ·              │     ·         │          ·           │  ·                   │  ·                   │
│ DiPP NRW (Digital …  │ http://www.dipp.nr…  │ Europe            │ Germany              │ 2777           │ 2777 (100%)          │ … │ Fedora           │ 2005-03-05    │ https://www.base-s…  │ NULL                 │ NULL                 │
│ Georgia Institute …  │ https://smartech.g…  │ North America     │ United States of A…  │ 80954          │ 4731 (6%)            │ … │ DSpace           │ 2005-03-05    │ https://www.base-s…  │ NULL                 │ NULL                 │
│ Ohio State Univers…  │ https://kb.osu.edu/  │ North America     │ United States of A…  │ 60615          │ 3325 (6%)            │ … │ DSpace           │ 2005-03-05    │ https://www.base-s…  │ 39.999410 / -83.02…  │ NULL                 │
│ Universität zu Köl…  │ http://kups.ub.uni…  │ Europe            │ Germany              │ 24472          │ 877 (4%)             │ … │ Eprints 3        │ 2005-03-05    │ https://www.base-s…  │ 50.925970 / 6.928460 │ NULL                 │
│ University of Bris…  │ https://research-i…  │ Europe            │ United Kingdom       │ 198915         │ 48254 (25%)          │ … │ Pure             │ 2005-03-05    │ https://www.base-s…  │ 51.459668 / -2.601…  │ NULL                 │
│ University of Cali…  │ http://escholarshi…  │ North America     │ United States of A…  │ 528750         │ 528750 (100%)        │ … │ Eigenentwicklung │ 2005-03-05    │ https://www.base-s…  │ 37.802760 / -122.2…  │ NULL                 │
│ University of Mary…  │ https://drum.lib.u…  │ North America     │ United States of A…  │ 32632          │ 223 (1%)             │ … │ DSpace           │ 2005-03-05    │ https://www.base-s…  │ 38.986918 / -76.94…  │ NULL                 │
│ BioMed Central       │ http://www.biomedc…  │ Europe            │ United Kingdom       │ 295171         │ 295171 (100%)        │ … │ Unbekannt        │ 2004-12-01    │ https://www.base-s…  │ NULL                 │ NULL                 │
│ Krause & Pacherneg…  │ https://www.kup.at…  │ Europe            │ Austria              │ 10091          │ 10091 (100%)         │ … │ VTOAI            │ 2004-12-01    │ https://www.base-s…  │ NULL                 │ NULL                 │
│ ETH Zürich Researc…  │ https://www.resear…  │ Europe            │ Switzerland          │ 215267         │ 96658 (45%)          │ … │ DSpace XOAI      │ 2004-08-15    │ https://www.base-s…  │ 47.384000 / 8.654000 │ NULL                 │
│ Open Access LMU (L…  │ http://epub.ub.uni…  │ Europe            │ Germany              │ 39303          │ 600 (2%)             │ … │ Eprints 3        │ 2004-08-15    │ https://www.base-s…  │ 48.149500 / 11.580…  │ NULL                 │
│ PubliDo - Hochschu…  │ https://opus.bsz-b…  │ Europe            │ Germany              │ 2338           │ 622 (27%)            │ … │ Opus 4           │ 2004-08-15    │ https://www.base-s…  │ 51.492640 / 7.416120 │ NULL                 │
│ Publikationen der …  │ https://publikatio…  │ Europe            │ Germany              │ 13457          │ 13421 (99%)          │ … │ DSpace XOAI      │ 2004-08-15    │ https://www.base-s…  │ 49.234860 / 6.994410 │ NULL                 │
│ Publikationsserver…  │ https://opus4.kobv…  │ Europe            │ Germany              │ 3829           │ 1726 (46%)           │ … │ Opus 4           │ 2004-08-15    │ https://www.base-s…  │ 51.225000 / 6.775630 │ NULL                 │
│ Publikationsserver…  │ https://whge.opus.…  │ Europe            │ Germany              │ 2678           │ 311 (12%)            │ … │ Opus 4           │ 2004-08-15    │ https://www.base-s…  │ 51.574100 / 7.027791 │ NULL                 │
│ ILEJ - Internet Li…  │ http://www.bodley.…  │ Europe            │ United Kingdom       │ 104185         │ 104185 (100%)        │ … │ Unbekannt        │ 2004-06-30    │ https://www.base-s…  │ NULL                 │ NULL                 │
│ Media SuUB Bremen …  │ https://media.suub…  │ Europe            │ Germany              │ 7082           │ 7082 (100%)          │ … │ DSpace XOAI      │ 2004-06-30    │ https://www.base-s…  │ 53.100300 / 8.869720 │ NULL                 │
│ miami (münstersche…  │ http://miami.uni-m…  │ Europe            │ Germany              │ 9996           │ 9517 (96%)           │ … │ Alfresco         │ 2004-06-30    │ https://www.base-s…  │ 51.963000 / 7.616000 │ NULL                 │
│ Open-Access-Publik…  │ http://edoc.hu-ber…  │ Europe            │ Germany              │ 29631          │ 29631 (100%)         │ … │ DSpace           │ 2004-06-30    │ https://www.base-s…  │ 52.523780 / 13.411…  │ NULL                 │
│ Edu Science Indone…  │ https://journal.ed…  │ Asia              │ Indonesia            │ 15             │ 15 (100%)            │ … │ OJS              │ BASE URL:     │ https://www.base-s…  │ NULL                 │ NULL                 │
├──────────────────────┴──────────────────────┴───────────────────┴──────────────────────┴────────────────┴──────────────────────┴───┴──────────────────┴───────────────┴──────────────────────┴──────────────────────┴──────────────────────┤
│ 11815 rows (40 shown)                                                                                                                                                                                                12 columns (11 shown) │
└────────────────────────────────────────────────────────────────────────────────────────────────────────────────────────────────────────────────────────────────────────────────────────────────────────────────────────────────────────────┘
…
